{
  "page": 1,
  "pages": 27,
  "count": 320,
  "items": [
    {
      "id": 76229667,
      "firstName": "Azure",
      "lastName": "Team",
      "fullName": "Azure Team",
      "photoUrl": null,
      "photoType": null,
      "gender": "unknown",
      "age": null,
      "organization": null,
      "jobTitle": null,
      "location": null,
      "createdAt": "2016-03-16T18:54:20Z",
      "modifiedAt": "2016-03-16T18:54:20Z"
    },
    {
      "id": 76133979,
      "firstName": null,
      "lastName": null,
      "fullName": "austinr@uta.edu",
      "photoUrl": null,
      "photoType": null,
      "gender": "unknown",
      "age": null,
      "organization": null,
      "jobTitle": null,
      "location": null,
      "createdAt": "2016-03-15T21:21:03Z",
      "modifiedAt": "2016-03-15T21:21:03Z"
    },
    {
      "id": 75998940,
      "firstName": "Mill",
      "lastName": null,
      "fullName": "Mill",
      "photoUrl": null,
      "photoType": null,
      "gender": "unknown",
      "age": null,
      "organization": null,
      "jobTitle": null,
      "location": null,
      "createdAt": "2016-03-14T18:21:17Z",
      "modifiedAt": "2016-03-14T18:21:17Z"
    },
    {
      "id": 75847849,
      "firstName": "Pretty",
      "lastName": null,
      "fullName": "Pretty",
      "photoUrl": null,
      "photoType": null,
      "gender": "unknown",
      "age": null,
      "organization": null,
      "jobTitle": null,
      "location": null,
      "createdAt": "2016-03-12T17:50:05Z",
      "modifiedAt": "2016-03-12T17:50:05Z"
    },
    {
      "id": 75847736,
      "firstName": "Don",
      "lastName": "Lucas",
      "fullName": "Don Lucas",
      "photoUrl": null,
      "photoType": null,
      "gender": "unknown",
      "age": null,
      "organization": null,
      "jobTitle": null,
      "location": null,
      "createdAt": "2016-03-12T17:47:39Z",
      "modifiedAt": "2016-03-12T17:47:39Z"
    },
    {
      "id": 75799488,
      "firstName": "robert",
      "lastName": "corney",
      "fullName": "robert corney",
      "photoUrl": null,
      "photoType": null,
      "gender": "unknown",
      "age": null,
      "organization": null,
      "jobTitle": null,
      "location": null,
      "createdAt": "2016-03-11T21:54:20Z",
      "modifiedAt": "2016-03-11T21:54:21Z"
    },
    {
      "id": 75794460,
      "firstName": null,
      "lastName": null,
      "fullName": "drweeks20@gmail.com",
      "photoUrl": null,
      "photoType": null,
      "gender": "unknown",
      "age": null,
      "organization": null,
      "jobTitle": null,
      "location": null,
      "createdAt": "2016-03-11T20:44:46Z",
      "modifiedAt": "2016-03-11T20:44:46Z"
    },
    {
      "id": 75783323,
      "firstName": "Meredith",
      "lastName": "Dillard",
      "fullName": "Meredith Dillard",
      "photoUrl": null,
      "photoType": null,
      "gender": "unknown",
      "age": null,
      "organization": null,
      "jobTitle": null,
      "location": null,
      "createdAt": "2016-03-11T18:25:31Z",
      "modifiedAt": "2016-03-11T18:25:31Z"
    },
    {
      "id": 75718256,
      "firstName": "Julianne",
      "lastName": "Edwards",
      "fullName": "Julianne Edwards",
      "photoUrl": null,
      "photoType": null,
      "gender": "unknown",
      "age": null,
      "organization": null,
      "jobTitle": null,
      "location": null,
      "createdAt": "2016-03-11T01:27:36Z",
      "modifiedAt": "2016-03-11T01:27:36Z"
    },
    {
      "id": 75686087,
      "firstName": "William",
      "lastName": "Cochran",
      "fullName": "William Cochran",
      "photoUrl": null,
      "photoType": null,
      "gender": "unknown",
      "age": null,
      "organization": null,
      "jobTitle": null,
      "location": null,
      "createdAt": "2016-03-10T18:35:06Z",
      "modifiedAt": "2016-03-10T18:37:49Z"
    },
    {
      "id": 75683228,
      "firstName": null,
      "lastName": null,
      "fullName": "do-not-reply@dropbox.com",
      "photoUrl": null,
      "photoType": null,
      "gender": "unknown",
      "age": null,
      "organization": null,
      "jobTitle": null,
      "location": null,
      "createdAt": "2016-03-10T18:05:37Z",
      "modifiedAt": "2016-03-10T18:05:37Z"
    },
    {
      "id": 75670800,
      "firstName": null,
      "lastName": null,
      "fullName": "whitetail5474@yahoo.com",
      "photoUrl": null,
      "photoType": null,
      "gender": "unknown",
      "age": null,
      "organization": null,
      "jobTitle": null,
      "location": null,
      "createdAt": "2016-03-10T16:06:12Z",
      "modifiedAt": "2016-03-10T16:06:12Z"
    },
    {
      "id": 75669581,
      "firstName": "Christopher",
      "lastName": "Ward",
      "fullName": "Christopher Ward",
      "photoUrl": null,
      "photoType": null,
      "gender": "unknown",
      "age": null,
      "organization": null,
      "jobTitle": null,
      "location": null,
      "createdAt": "2016-03-10T15:54:37Z",
      "modifiedAt": "2016-03-10T15:54:37Z"
    },
    {
      "id": 75667301,
      "firstName": "Harriette",
      "lastName": "Skinner",
      "fullName": "Harriette Skinner",
      "photoUrl": null,
      "photoType": null,
      "gender": "unknown",
      "age": null,
      "organization": null,
      "jobTitle": null,
      "location": null,
      "createdAt": "2016-03-10T15:34:15Z",
      "modifiedAt": "2016-03-10T15:34:15Z"
    },
    {
      "id": 75598183,
      "firstName": null,
      "lastName": null,
      "fullName": "jflores@bakertriangle.com",
      "photoUrl": null,
      "photoType": null,
      "gender": "unknown",
      "age": null,
      "organization": null,
      "jobTitle": null,
      "location": null,
      "createdAt": "2016-03-09T23:22:52Z",
      "modifiedAt": "2016-03-09T23:22:52Z"
    },
    {
      "id": 75581371,
      "firstName": "Kathi",
      "lastName": "Thweatt",
      "fullName": "Kathi Thweatt",
      "photoUrl": null,
      "photoType": null,
      "gender": "unknown",
      "age": null,
      "organization": null,
      "jobTitle": null,
      "location": null,
      "createdAt": "2016-03-09T20:06:12Z",
      "modifiedAt": "2016-03-09T20:06:12Z"
    },
    {
      "id": 75486122,
      "firstName": null,
      "lastName": null,
      "fullName": "safiyaaishayoung216@gmail.com",
      "photoUrl": null,
      "photoType": null,
      "gender": "unknown",
      "age": null,
      "organization": null,
      "jobTitle": null,
      "location": null,
      "createdAt": "2016-03-09T00:53:37Z",
      "modifiedAt": "2016-03-09T00:53:37Z"
    },
    {
      "id": 75476316,
      "firstName": "Kathy",
      "lastName": "Haley",
      "fullName": "Kathy Haley",
      "photoUrl": null,
      "photoType": null,
      "gender": "unknown",
      "age": null,
      "organization": null,
      "jobTitle": null,
      "location": null,
      "createdAt": "2016-03-08T23:37:22Z",
      "modifiedAt": "2016-03-08T23:56:32Z"
    },
    {
      "id": 75471631,
      "firstName": "Brianne",
      "lastName": "Horvath",
      "fullName": "Brianne Horvath",
      "photoUrl": null,
      "photoType": null,
      "gender": "unknown",
      "age": null,
      "organization": null,
      "jobTitle": null,
      "location": null,
      "createdAt": "2016-03-08T22:57:02Z",
      "modifiedAt": "2016-03-08T22:57:02Z"
    },
    {
      "id": 75347410,
      "firstName": "Barbara",
      "lastName": "Franklin",
      "fullName": "Barbara Franklin",
      "photoUrl": null,
      "photoType": null,
      "gender": "unknown",
      "age": null,
      "organization": null,
      "jobTitle": null,
      "location": null,
      "createdAt": "2016-03-07T22:04:03Z",
      "modifiedAt": "2016-03-07T22:04:26Z"
    },
    {
      "id": 75346811,
      "firstName": "Jim",
      "lastName": "Peterson",
      "fullName": "Jim Peterson",
      "photoUrl": null,
      "photoType": null,
      "gender": "unknown",
      "age": null,
      "organization": null,
      "jobTitle": null,
      "location": null,
      "createdAt": "2016-03-07T21:58:36Z",
      "modifiedAt": "2016-03-07T21:58:37Z"
    },
    {
      "id": 75200265,
      "firstName": "Stripe",
      "lastName": null,
      "fullName": "Stripe",
      "photoUrl": null,
      "photoType": null,
      "gender": "unknown",
      "age": null,
      "organization": null,
      "jobTitle": null,
      "location": null,
      "createdAt": "2016-03-06T11:13:11Z",
      "modifiedAt": "2016-03-06T11:13:11Z"
    },
    {
      "id": 75179517,
      "firstName": "Burt",
      "lastName": "Douglass",
      "fullName": "Burt Douglass",
      "photoUrl": null,
      "photoType": null,
      "gender": "unknown",
      "age": null,
      "organization": null,
      "jobTitle": null,
      "location": null,
      "createdAt": "2016-03-05T23:46:47Z",
      "modifiedAt": "2016-03-08T00:43:28Z"
    },
    {
      "id": 75173757,
      "firstName": null,
      "lastName": null,
      "fullName": "nickervin94@yahoo.com",
      "photoUrl": null,
      "photoType": null,
      "gender": "unknown",
      "age": null,
      "organization": null,
      "jobTitle": null,
      "location": null,
      "createdAt": "2016-03-05T21:34:35Z",
      "modifiedAt": "2016-03-10T21:00:10Z"
    },
    {
      "id": 75171235,
      "firstName": "Misty",
      "lastName": "Ocompo",
      "fullName": "Misty Ocompo",
      "photoUrl": null,
      "photoType": null,
      "gender": "unknown",
      "age": null,
      "organization": null,
      "jobTitle": null,
      "location": null,
      "createdAt": "2016-03-05T20:41:10Z",
      "modifiedAt": "2016-03-14T18:47:06Z"
    },
    {
      "id": 75152845,
      "firstName": null,
      "lastName": null,
      "fullName": "lisa.hinson24@gmail.com",
      "photoUrl": null,
      "photoType": null,
      "gender": "unknown",
      "age": null,
      "organization": null,
      "jobTitle": null,
      "location": null,
      "createdAt": "2016-03-05T15:18:14Z",
      "modifiedAt": "2016-03-05T15:18:14Z"
    },
    {
      "id": 75143496,
      "firstName": "Stripe",
      "lastName": null,
      "fullName": "Stripe",
      "photoUrl": null,
      "photoType": null,
      "gender": "unknown",
      "age": null,
      "organization": null,
      "jobTitle": null,
      "location": null,
      "createdAt": "2016-03-05T12:11:08Z",
      "modifiedAt": "2016-03-05T12:11:08Z"
    },
    {
      "id": 75095083,
      "firstName": "Laura",
      "lastName": "Gillespie",
      "fullName": "Laura Gillespie",
      "photoUrl": null,
      "photoType": null,
      "gender": "unknown",
      "age": null,
      "organization": null,
      "jobTitle": null,
      "location": null,
      "createdAt": "2016-03-04T20:13:51Z",
      "modifiedAt": "2016-03-06T16:28:44Z"
    },
    {
      "id": 75079973,
      "firstName": "Sara",
      "lastName": "Mehciz",
      "fullName": "Sara Mehciz",
      "photoUrl": null,
      "photoType": null,
      "gender": "unknown",
      "age": null,
      "organization": null,
      "jobTitle": null,
      "location": null,
      "createdAt": "2016-03-04T17:33:18Z",
      "modifiedAt": "2016-03-04T17:33:18Z"
    },
    {
      "id": 75006276,
      "firstName": "Paula",
      "lastName": "Hunter",
      "fullName": "Paula Hunter",
      "photoUrl": null,
      "photoType": null,
      "gender": "unknown",
      "age": null,
      "organization": null,
      "jobTitle": null,
      "location": null,
      "createdAt": "2016-03-03T23:57:29Z",
      "modifiedAt": "2016-03-04T22:05:35Z"
    },
    {
      "id": 74982374,
      "firstName": "Bhupinder S Sood",
      "lastName": "Sood",
      "fullName": "Bhupinder S Sood Sood",
      "photoUrl": null,
      "photoType": null,
      "gender": "unknown",
      "age": null,
      "organization": null,
      "jobTitle": null,
      "location": null,
      "createdAt": "2016-03-03T19:44:01Z",
      "modifiedAt": "2016-03-03T20:17:24Z"
    },
    {
      "id": 74981207,
      "firstName": "Riley",
      "lastName": "Knight",
      "fullName": "Riley Knight",
      "photoUrl": null,
      "photoType": null,
      "gender": "unknown",
      "age": null,
      "organization": null,
      "jobTitle": null,
      "location": null,
      "createdAt": "2016-03-03T19:34:22Z",
      "modifiedAt": "2016-03-03T20:33:01Z"
    },
    {
      "id": 74978200,
      "firstName": "Chris",
      "lastName": "Bigalke",
      "fullName": "Chris Bigalke",
      "photoUrl": null,
      "photoType": null,
      "gender": "unknown",
      "age": null,
      "organization": null,
      "jobTitle": null,
      "location": null,
      "createdAt": "2016-03-03T19:09:56Z",
      "modifiedAt": "2016-03-03T19:09:56Z"
    },
    {
      "id": 74951290,
      "firstName": "John",
      "lastName": "Beesley",
      "fullName": "John Beesley",
      "photoUrl": null,
      "photoType": null,
      "gender": "unknown",
      "age": null,
      "organization": null,
      "jobTitle": null,
      "location": null,
      "createdAt": "2016-03-03T15:24:52Z",
      "modifiedAt": "2016-03-03T18:26:23Z"
    },
    {
      "id": 74896635,
      "firstName": "Azure",
      "lastName": "Team",
      "fullName": "Azure Team",
      "photoUrl": null,
      "photoType": null,
      "gender": "unknown",
      "age": null,
      "organization": null,
      "jobTitle": null,
      "location": null,
      "createdAt": "2016-03-03T01:07:51Z",
      "modifiedAt": "2016-03-03T01:07:51Z"
    },
    {
      "id": 74880850,
      "firstName": "Lawrence",
      "lastName": "Fuller",
      "fullName": "Lawrence Fuller",
      "photoUrl": null,
      "photoType": null,
      "gender": "unknown",
      "age": null,
      "organization": null,
      "jobTitle": null,
      "location": null,
      "createdAt": "2016-03-02T21:36:48Z",
      "modifiedAt": "2016-03-02T21:36:48Z"
    },
    {
      "id": 74875896,
      "firstName": "Suzy",
      "lastName": "Escue",
      "fullName": "Suzy Escue",
      "photoUrl": null,
      "photoType": null,
      "gender": "unknown",
      "age": null,
      "organization": null,
      "jobTitle": null,
      "location": null,
      "createdAt": "2016-03-02T20:43:34Z",
      "modifiedAt": "2016-03-02T23:50:20Z"
    },
    {
      "id": 74846821,
      "firstName": "Scott",
      "lastName": "Parker",
      "fullName": "Scott Parker",
      "photoUrl": null,
      "photoType": null,
      "gender": "unknown",
      "age": null,
      "organization": null,
      "jobTitle": null,
      "location": null,
      "createdAt": "2016-03-02T16:06:18Z",
      "modifiedAt": "2016-03-11T16:00:25Z"
    },
    {
      "id": 74804217,
      "firstName": "Suzie",
      "lastName": "Gaines",
      "fullName": "Suzie Gaines",
      "photoUrl": null,
      "photoType": null,
      "gender": "unknown",
      "age": null,
      "organization": null,
      "jobTitle": null,
      "location": null,
      "createdAt": "2016-03-02T06:34:53Z",
      "modifiedAt": "2016-03-02T06:34:53Z"
    },
    {
      "id": 74777569,
      "firstName": "Penny",
      "lastName": "Weinhold",
      "fullName": "Penny Weinhold",
      "photoUrl": null,
      "photoType": null,
      "gender": "unknown",
      "age": null,
      "organization": null,
      "jobTitle": null,
      "location": null,
      "createdAt": "2016-03-01T23:56:01Z",
      "modifiedAt": "2016-03-02T00:51:10Z"
    },
    {
      "id": 74769476,
      "firstName": "1&1 Mybusiness",
      "lastName": "Site",
      "fullName": "1&1 Mybusiness Site",
      "photoUrl": null,
      "photoType": null,
      "gender": "unknown",
      "age": null,
      "organization": null,
      "jobTitle": null,
      "location": null,
      "createdAt": "2016-03-01T22:48:48Z",
      "modifiedAt": "2016-03-08T14:44:29Z"
    },
    {
      "id": 74720975,
      "firstName": "Evelyn",
      "lastName": "Klaas",
      "fullName": "Evelyn Klaas",
      "photoUrl": null,
      "photoType": null,
      "gender": "unknown",
      "age": null,
      "organization": null,
      "jobTitle": null,
      "location": null,
      "createdAt": "2016-03-01T15:54:15Z",
      "modifiedAt": "2016-03-15T15:38:08Z"
    },
    {
      "id": 74675381,
      "firstName": "Deb",
      "lastName": "Schoot",
      "fullName": "Deb Schoot",
      "photoUrl": null,
      "photoType": null,
      "gender": "unknown",
      "age": null,
      "organization": null,
      "jobTitle": null,
      "location": null,
      "createdAt": "2016-03-01T05:34:10Z",
      "modifiedAt": "2016-03-01T05:34:10Z"
    },
    {
      "id": 74649275,
      "firstName": "cheryl",
      "lastName": "taylor",
      "fullName": "cheryl taylor",
      "photoUrl": null,
      "photoType": null,
      "gender": "unknown",
      "age": null,
      "organization": null,
      "jobTitle": null,
      "location": null,
      "createdAt": "2016-02-29T23:41:42Z",
      "modifiedAt": "2016-02-29T23:41:42Z"
    },
    {
      "id": 74646761,
      "firstName": "Ruth",
      "lastName": "Warner",
      "fullName": "Ruth Warner",
      "photoUrl": null,
      "photoType": null,
      "gender": "unknown",
      "age": null,
      "organization": null,
      "jobTitle": null,
      "location": null,
      "createdAt": "2016-02-29T23:13:57Z",
      "modifiedAt": "2016-03-07T20:07:41Z"
    },
    {
      "id": 74635781,
      "firstName": "Ross",
      "lastName": "Blair",
      "fullName": "Ross Blair",
      "photoUrl": null,
      "photoType": null,
      "gender": "unknown",
      "age": null,
      "organization": null,
      "jobTitle": null,
      "location": null,
      "createdAt": "2016-02-29T21:13:02Z",
      "modifiedAt": "2016-03-03T21:20:36Z"
    },
    {
      "id": 74627396,
      "firstName": "Ken",
      "lastName": "Hendrickson",
      "fullName": "Ken Hendrickson",
      "photoUrl": null,
      "photoType": null,
      "gender": "unknown",
      "age": null,
      "organization": null,
      "jobTitle": null,
      "location": null,
      "createdAt": "2016-02-29T19:51:25Z",
      "modifiedAt": "2016-02-29T19:51:25Z"
    },
    {
      "id": 74599023,
      "firstName": "Mary",
      "lastName": "Albaugh",
      "fullName": "Mary Albaugh",
      "photoUrl": null,
      "photoType": null,
      "gender": "unknown",
      "age": null,
      "organization": null,
      "jobTitle": null,
      "location": null,
      "createdAt": "2016-02-29T15:30:39Z",
      "modifiedAt": "2016-02-29T15:30:39Z"
    },
    {
      "id": 74592967,
      "firstName": "Eric",
      "lastName": "Yorkston",
      "fullName": "Eric Yorkston",
      "photoUrl": null,
      "photoType": null,
      "gender": "unknown",
      "age": null,
      "organization": null,
      "jobTitle": null,
      "location": null,
      "createdAt": "2016-02-29T14:31:49Z",
      "modifiedAt": "2016-02-29T20:27:19Z"
    },
    {
      "id": 74553527,
      "firstName": "Microsoft Customer Support - Do Not",
      "lastName": "Reply",
      "fullName": "Microsoft Customer Support - Do Not Reply",
      "photoUrl": null,
      "photoType": null,
      "gender": "unknown",
      "age": null,
      "organization": null,
      "jobTitle": null,
      "location": null,
      "createdAt": "2016-02-29T02:54:53Z",
      "modifiedAt": "2016-02-29T02:54:53Z"
    }
  ]
}